ID	V1_M	V2_X	V2_S	V2_T	V3_T	V3_R	V3_Y	V5_P	V6_K	V7_P	V12_X	V13_R	V13_P	V13_Y	V16_V	V17_R	V18_R	V18_Y	V18_Q	V20_Q	V22_V	V32_G	V32_S	V32_X	V34_V	V35_Y	V36_V	V37_L	V39_R	V40_R	V47_R	V50_R
sample1	1	1	0	0	1	0	0	1	1	1	1	1	0	0	1	1	1	0	0	1	1	1	0	0	1	1	1	1	1	1	1	1
sample2	0	0	1	0	1	0	0	1	1	1	1	0	1	0	1	1	0	1	0	1	0	1	0	0	1	1	1	1	1	1	1	0
sample3	1	0	1	0	1	0	0	1	1	1	0	1	0	0	0	1	0	1	0	0	0	0	1	0	1	1	1	1	1	0	0	1
sample4	0	0	0	1	0	1	0	1	1	1	1	1	0	0	1	1	1	0	0	0	0	0	1	0	1	1	1	1	1	0	0	1
sample5	1	0	1	0	0	1	0	1	0	1	1	0	0	1	0	1	1	0	0	0	0	1	0	0	1	1	1	1	1	0	1	0
sample6	0	0	1	0	0	1	0	1	0	1	1	0	0	1	0	1	1	0	0	1	0	1	0	0	1	1	1	1	0	0	0	1
sample7	1	0	1	0	1	0	0	1	1	1	0	0	0	1	1	0	1	0	0	0	0	1	0	0	1	1	1	0	0	0	0	1
sample8	0	0	1	0	1	0	0	1	1	1	0	0	0	1	0	1	0	0	1	1	0	0	0	1	1	1	1	1	0	1	0	1
sample9	1	0	0	1	0	1	0	1	0	1	0	0	1	0	0	1	0	0	1	0	0	1	0	0	1	1	1	0	1	1	1	1
sample10	1	0	0	1	1	0	0	0	0	1	0	0	1	0	1	1	0	0	1	0	0	0	0	1	1	0	1	1	1	1	1	1
sample11	1	0	0	1	1	0	0	0	1	1	0	0	1	0	1	1	0	0	1	0	0	0	0	1	1	0	1	1	1	1	1	0
sample12	1	0	0	1	0	0	1	0	1	1	1	0	1	0	1	1	0	1	0	0	0	1	0	0	1	0	1	1	1	1	1	0
sample13	0	0	1	0	0	0	1	1	1	1	1	0	0	1	0	1	0	0	1	1	0	0	1	0	1	0	1	0	1	1	0	1
sample14	0	0	1	0	1	0	0	0	1	1	0	0	1	0	1	1	0	1	0	1	0	1	0	0	1	1	0	1	1	1	1	0
sample15	1	0	1	0	1	0	0	1	1	1	0	0	0	1	0	0	1	0	0	0	0	1	0	0	1	1	1	0	0	0	0	1
sample16	1	1	0	0	1	0	0	0	1	1	1	1	0	0	1	1	1	0	0	1	1	1	0	0	1	0	1	0	1	1	1	1
sample17	0	0	0	1	0	0	1	0	1	1	1	0	1	0	1	1	0	1	0	0	0	1	0	0	1	0	0	1	1	0	1	0
sample18	1	0	0	1	1	0	0	0	1	1	0	0	1	0	1	1	0	0	1	0	0	0	0	1	0	0	1	1	1	1	1	0
sample19	0	0	0	1	0	1	0	1	1	1	1	1	0	0	1	1	1	0	0	0	0	0	0	1	1	1	1	0	1	0	0	1
sample20	1	0	1	0	1	0	0	1	1	0	0	0	0	1	1	0	0	1	0	0	0	1	0	0	1	1	0	0	0	0	0	1
sample21	0	0	1	0	0	0	1	0	1	1	1	0	0	1	0	0	0	0	1	1	0	0	1	0	1	0	1	0	1	1	0	1
sample22	0	0	1	0	1	0	0	1	1	1	0	0	0	1	0	1	0	0	1	1	0	0	0	1	1	1	1	1	0	1	0	1
sample23	0	0	1	0	1	0	0	1	1	0	1	0	1	0	1	1	0	1	0	1	0	1	0	0	1	0	1	1	1	1	1	0
sample24	0	0	1	0	0	0	1	1	0	0	1	0	0	1	0	1	1	0	0	1	1	1	0	0	1	1	1	1	0	0	0	1
sample25	0	1	0	0	1	0	0	0	1	1	1	1	0	0	1	1	1	0	0	1	1	1	0	0	0	1	0	1	1	1	1	1
sample26	0	0	0	1	0	1	0	1	1	1	1	1	0	0	0	1	1	0	0	0	0	0	1	0	1	1	1	1	1	0	0	1
sample27	0	0	1	0	0	0	1	1	1	1	1	0	0	1	0	1	0	0	1	1	0	0	1	0	1	0	1	0	1	1	0	0
sample28	1	0	0	1	1	0	0	1	1	1	0	0	0	1	0	0	0	1	0	0	0	1	0	0	0	1	0	0	0	0	0	1
sample29	1	1	0	0	0	0	1	0	1	1	1	1	0	0	1	0	1	0	0	1	1	1	0	0	1	0	0	1	1	1	1	1
sample30	1	0	0	1	0	0	1	0	1	0	1	0	1	0	1	1	0	1	0	0	0	1	0	0	0	0	1	1	1	1	1	0
sample31	1	0	1	0	0	1	0	1	0	0	1	0	0	1	0	1	1	0	0	0	0	0	0	1	1	1	1	1	1	0	1	0
sample32	0	0	0	1	0	1	0	0	0	1	1	0	0	1	1	1	1	0	0	0	0	0	1	0	1	1	1	1	1	0	0	1
sample33	0	0	1	0	0	0	1	1	1	1	1	0	0	1	1	1	0	0	1	1	0	0	1	0	1	0	1	0	1	1	0	1
sample34	1	0	0	1	1	0	0	0	1	1	0	1	0	0	1	1	0	0	1	0	0	0	0	1	1	0	1	1	1	1	1	0
sample35	0	0	1	0	1	0	0	1	1	1	0	0	0	1	1	1	1	0	0	1	0	0	0	1	1	1	1	1	0	1	0	1
sample36	0	0	1	0	1	0	0	1	1	1	1	0	1	0	1	1	0	1	0	1	0	1	0	0	1	1	1	1	1	1	1	1
sample37	1	0	1	0	1	0	0	1	1	1	0	1	0	0	0	1	0	1	0	0	0	0	1	0	1	1	1	1	1	0	0	1
sample38	1	0	1	0	0	1	0	1	0	1	1	0	0	1	0	1	1	0	0	0	0	1	0	0	1	1	1	1	1	0	1	1
sample39	1	0	0	1	0	0	1	0	1	1	1	0	1	0	1	1	0	1	0	0	0	1	0	0	1	0	1	1	1	1	1	1
sample40	0	0	1	0	0	1	0	1	0	1	1	0	0	1	0	1	1	0	0	1	0	1	0	0	1	1	1	1	0	0	0	1
sample41	0	0	0	1	0	1	0	1	1	1	1	1	0	0	1	1	1	0	0	0	0	0	1	0	1	1	1	1	1	0	0	1
sample42	1	0	1	0	1	0	0	1	1	1	0	0	0	1	1	0	1	0	0	0	0	1	0	0	1	1	1	0	0	0	0	1
sample43	0	0	1	0	1	0	0	1	1	1	0	0	0	1	0	1	0	0	1	1	0	0	0	1	1	1	1	1	0	1	0	1
sample44	1	0	0	1	0	1	0	1	0	1	0	0	1	0	0	1	0	0	1	0	0	1	0	0	1	1	1	0	1	1	1	1
sample45	1	0	0	1	1	0	0	0	0	1	0	0	1	0	1	1	0	0	1	0	0	0	0	1	1	0	1	1	1	1	1	1
sample46	1	0	0	1	1	0	0	0	1	1	0	0	1	0	1	1	0	0	1	0	0	0	0	1	1	0	1	1	1	1	1	0
sample47	1	0	0	1	0	0	1	0	1	1	1	0	1	0	1	1	0	1	0	0	0	1	0	0	1	0	1	1	1	1	1	0
sample48	0	0	1	0	0	0	1	1	1	1	1	0	0	1	0	1	0	0	1	1	0	0	1	0	1	0	1	0	1	1	0	1
sample49	1	0	1	0	1	0	0	1	1	1	0	1	0	0	0	1	0	1	0	0	0	0	1	0	1	1	1	1	1	0	0	1
sample50	0	0	0	1	0	1	0	1	1	1	1	1	0	0	1	1	1	0	0	0	0	0	1	0	1	1	1	1	1	0	0	1
