CHROM	POS	ID	REF_Host1	ALT_Host2	PARASITE1_HOST1_AF	PARASITE1_HOST2_AF	PARASITE2_HOST1_AF	PARASITE2_HOST2_AF	PARASITE1_HOST1_COUNT	PARASITE1_HOST2_COUNT	PARASITE2_HOST1_COUNT	PARASITE2_HOST2_COUNT	OBS_CT_INF	OBS_CT_UNINF	UNINF_HOST1_FREQ	UNINF_HOST2_FREQ	swapped
1	92189515	rs9790275	T	G	0.57895	0.42105	0.53571	0.46429	22	16	30	26	94	104	0.442308	0.557692	no
1	115475234	rs7964180	G	A	0.52632	0.47368	0.46552	0.53448	20	18	27	31	96	104	0.442308	0.557692	no
1	169523766	rs7425082	C	A	0.35	0.65	0.48333	0.51667	14	26	29	31	100	104	0.480769	0.519231	no
4	150794750	rs6739305	C	A	0.45	0.55	0.55	0.45	18	22	33	27	100	104	0.557692	0.442308	no
5	164520833	rs1473244	T	C	0.425	0.575	0.5	0.5	17	23	30	30	100	104	0.528846	0.471154	no
6	28269139	rs8872283	T	G	0.575	0.425	0.48333	0.51667	23	17	29	31	100	104	0.471154	0.528846	no
7	5274288	rs5776864	T	C	0.525	0.475	0.38333	0.61667	21	19	23	37	100	104	0.596154	0.403846	no
8	62271451	rs5455978	G	A	0.625	0.375	0.55	0.45	25	15	33	27	100	104	0.461538	0.538462	no
9	95110021	rs2635842	A	G	0.65	0.35	0.58333	0.41667	26	14	35	25	100	104	0.490385	0.509615	no
10	61905013	rs3109387	T	C	0.45	0.55	0.41667	0.58333	18	22	25	35	100	104	0.5	0.5	no
11	117480349	rs8229646	T	C	0.475	0.525	0.4	0.6	19	21	24	36	100	104	0.461538	0.538462	no
12	114379919	rs8974139	C	T	0.45	0.55	0.5	0.5	18	22	30	30	100	104	0.432692	0.567308	no
13	67865813	rs7873853	C	A	0.4	0.6	0.55	0.45	16	24	33	27	100	104	0.490385	0.509615	no
14	82490104	rs6465662	G	T	0.425	0.575	0.55	0.45	17	23	33	27	100	104	0.490385	0.509615	no
15	77605544	rs8462082	T	A	0.425	0.575	0.5	0.5	17	23	30	30	100	104	0.567308	0.432692	no
16	42107487	rs6456519	T	C	0.425	0.575	0.51667	0.48333	17	23	31	29	100	104	0.490385	0.509615	no
16	54971173	rs3821583	T	G	0.4	0.6	0.51667	0.48333	16	24	31	29	100	104	0.480769	0.519231	yes
18	40409004	rs4201415	C	A	0.65	0.35	0.53333	0.46667	26	14	32	28	100	104	0.557692	0.442308	no
19	32618137	rs2394658	G	A	0.525	0.475	0.36667	0.63333	21	19	22	38	100	104	0.355769	0.644231	no
20	18075260	rs3726861	T	A	0.5	0.5	0.5	0.5	20	20	30	30	100	104	0.490385	0.509615	yes
