CHROM	POS	ID	REF_Host1	ALT_Host2	PARASITE1_HOST1_AF	PARASITE1_HOST2_AF	PARASITE2_HOST1_AF	PARASITE2_HOST2_AF	PARASITE1_HOST1_COUNT	PARASITE1_HOST2_COUNT	PARASITE2_HOST1_COUNT	PARASITE2_HOST2_COUNT	OBS_CT_INF	OBS_CT_UNINF	UNINF_HOST1_FREQ	UNINF_HOST2_FREQ	swapped	CSA	HS	PI	HP
1	92189515	rs9790275	T	G	0.60714	0.39286	0.5303	0.4697	17	11	35	31	94	104	0.442308	0.557692	no	0.07068236036964695	0.004670193486203333	0.40236155015410013	0.006565855856589928
1	115475234	rs7964180	G	A	0.53333	0.46667	0.4697	0.5303	16	14	31	35	96	104	0.442308	0.557692	no	0.05900529432364944	0.0019303184062378772	0.3662066871930242	0.004719489744518007
1	169523766	rs7425082	C	A	0.4375	0.5625	0.42647	0.57353	14	18	29	39	100	104	0.480769	0.519231	no	0.010392263276443353	0.0020299639324552576	0.3514621711335995	0.0025605386630820244
4	150794750	rs6739305	C	A	0.625	0.375	0.45588	0.54412	20	12	31	37	100	104	0.557692	0.442308	no	0.15781026354065295	0.0018709118761898666	0.3558074879862888	0.002753582773101245
5	164520833	rs1473244	T	C	0.5	0.5	0.45588	0.54412	16	16	31	37	100	104	0.528846	0.471154	no	0.04123394846093775	0.0023154751297645307	0.35059109210824824	0.002417637610093153
6	28269139	rs8872283	T	G	0.53125	0.46875	0.51471	0.48529	17	15	35	33	100	104	0.471154	0.528846	no	0.015447235398218176	0.001918264215679331	0.35344507106240014	0.004493582818463668
7	5274288	rs5776864	T	C	0.34375	0.65625	0.48529	0.51471	11	21	33	35	100	104	0.596154	0.403846	no	0.13301509202298195	0.006207932538715609	0.3673379910712004	0.0003210963398055761
8	62271451	rs5455978	G	A	0.5625	0.4375	0.58824	0.41176	18	14	40	28	100	104	0.461538	0.538462	no	0.024323156800208315	0.004763509550974877	0.34903397631697874	0.0060626349206962206
9	95110021	rs2635842	A	G	0.59375	0.40625	0.61765	0.38235	19	13	42	26	100	104	0.490385	0.509615	no	0.02285476063262125	0.004923519186233263	0.34781371168892733	0.006186072669317568
10	61905013	rs3109387	T	C	0.375	0.625	0.45588	0.54412	12	20	31	37	100	104	0.5	0.5	no	0.07620993069391753	0.002798600699650178	0.3626186906546726	0.002198900549725138
11	117480349	rs8229646	T	C	0.34375	0.65625	0.47059	0.52941	11	21	32	36	100	104	0.461538	0.538462	no	0.11951102767909791	0.001261161803475359	0.36829539634751873	0.003014538207633247
12	114379919	rs8974139	C	T	0.5625	0.4375	0.44118	0.55882	18	14	30	38	100	104	0.432692	0.567308	no	0.11327972625359976	0.0018581477431219003	0.34878565906236747	0.004305441597597311
13	67865813	rs7873853	C	A	0.53125	0.46875	0.47059	0.52941	17	15	32	36	100	104	0.490385	0.509615	no	0.05660585540045161	1.5102595594437417e-05	0.35187086358989655	0.0035116104159695796
14	82490104	rs6465662	G	T	0.59375	0.40625	0.45588	0.54412	19	13	31	37	100	104	0.490385	0.509615	no	0.12862393885688164	0.00037702187426919036	0.35290659057958546	0.0036949555304742997
15	77605544	rs8462082	T	A	0.59375	0.40625	0.41176	0.58824	19	13	28	40	100	104	0.567308	0.432692	no	0.17009003740136816	0.0038285376084304266	0.34347775436344036	0.001865077124177928
16	42107487	rs6456519	T	C	0.53125	0.46875	0.45588	0.54412	17	15	31	37	100	104	0.490385	0.509615	no	0.07037073903632711	0.00040786086363665174	0.35032440092816053	0.0033156280120087453
16	54971173	rs3821583	T	G	0.4375	0.5625	0.48529	0.51471	14	18	33	35	100	104	0.480769	0.519231	yes	0.04467011083268253	0.00042378713461174033	0.3553531270818109	0.003337399832166121
18	40409004	rs4201415	C	A	0.4375	0.5625	0.64706	0.35294	14	18	44	24	100	104	0.557692	0.442308	no	0.1980599910874103	0.0008975893522796349	0.32349912104752887	0.0037914966088886627
19	32618137	rs2394658	G	A	0.375	0.625	0.45588	0.54412	12	20	31	37	100	104	0.355769	0.644231	no	0.07620993069391753	0.0029701786199051593	0.3629146863512522	0.005143937959664154
20	18075260	rs3726861	T	A	0.4375	0.5625	0.52941	0.47059	14	18	36	32	100	104	0.490385	0.509615	yes	0.08574929257125438	0.0003770218742691921	0.35290659057958546	0.0037326577179012184
