CHROM	POS	ID	REF_Host1	ALT_Host2	PARASITE1_HOST1_AF	PARASITE1_HOST2_AF	PARASITE2_HOST1_AF	PARASITE2_HOST2_AF	PARASITE1_HOST1_COUNT	PARASITE1_HOST2_COUNT	PARASITE2_HOST1_COUNT	PARASITE2_HOST2_COUNT	OBS_CT_INF	OBS_CT_UNINF	UNINF_HOST1_FREQ	UNINF_HOST2_FREQ	swapped	CSA	HS	PI	HP
1	92189515	rs9790275	T	G	0.47368	0.52632	0.60714	0.39286	18	20	34	22	94	104	0.442308	0.557692	no	0.13173652741462616	0.004670193486203335	0.17384886576814126	0.004532333127905545
1	115475234	rs7964180	G	A	0.44737	0.55263	0.51724	0.48276	17	21	30	28	96	104	0.442308	0.557692	no	0.06835463313731151	0.0019303184062378772	0.20543301964486724	0.003165408941281239
1	169523766	rs7425082	C	A	0.425	0.575	0.43333	0.56667	17	23	26	34	100	104	0.480769	0.519231	no	0.008246178266588201	0.0020299639324552594	0.19712269666537496	0.0009765446397506728
4	150794750	rs6739305	C	A	0.5	0.5	0.51667	0.48333	20	20	31	29	100	104	0.557692	0.442308	no	0.016333198585000857	0.0018709118761898666	0.19575296196820077	0.0010033645628251756
5	164520833	rs1473244	T	C	0.5	0.5	0.45	0.55	20	20	27	33	100	104	0.528846	0.471154	no	0.04907821529333522	0.00231547512976453	0.19319890709893367	0.0008437157600000066
6	28269139	rs8872283	T	G	0.475	0.525	0.55	0.45	19	21	33	27	100	104	0.471154	0.528846	no	0.07354355067681899	0.001918264215679331	0.19321663884744544	0.002968029064941294
7	5274288	rs5776864	T	C	0.425	0.575	0.45	0.55	17	23	27	33	100	104	0.596154	0.403846	no	0.024673188560991353	0.006207932538715609	0.19877596919437251	0.0011162065774140788
8	62271451	rs5455978	G	A	0.625	0.375	0.55	0.45	25	15	33	27	100	104	0.461538	0.538462	no	0.07444375004781977	0.0047635095509748785	0.20749024398566943	0.004361387024324636
9	95110021	rs2635842	A	G	0.525	0.475	0.66667	0.33333	21	19	40	20	100	104	0.490385	0.509615	no	0.1422905556030172	0.004923519186233263	0.1650571578547454	0.004555447898425078
10	61905013	rs3109387	T	C	0.425	0.575	0.43333	0.56667	17	23	26	34	100	104	0.5	0.5	no	0.008246178266588201	0.002798600699650178	0.1971014492753623	0.0005997001499250371
11	117480349	rs8229646	T	C	0.425	0.575	0.43333	0.56667	17	23	26	34	100	104	0.461538	0.538462	no	0.008246178266588201	0.0012611618034753592	0.19714400694823747	0.0013534707857794496
12	114379919	rs8974139	C	T	0.575	0.425	0.41667	0.58333	23	17	25	35	100	104	0.432692	0.567308	no	0.1552586069843957	0.0018581477431219003	0.19010389525471377	0.0026814610046583367
13	67865813	rs7873853	C	A	0.425	0.575	0.53333	0.46667	17	23	32	28	100	104	0.490385	0.509615	no	0.1061657908025054	1.5102595594437417e-05	0.19809898117379907	0.00197268338416105
14	82490104	rs6465662	G	T	0.375	0.625	0.58333	0.41667	15	25	35	25	100	104	0.490385	0.509615	no	0.2041241452319315	0.00037702187426919215	0.19605921698865858	0.0021868052944481013
15	77605544	rs8462082	T	A	0.45	0.55	0.48333	0.51667	18	22	29	31	100	104	0.567308	0.432692	no	0.03271881019555682	0.0038285376084304266	0.19790299020024105	2.6475721702891693e-05
16	42107487	rs6456519	T	C	0.35	0.65	0.56667	0.43333	14	26	34	26	100	104	0.490385	0.509615	no	0.21245914639969934	0.00040786086363665174	0.2042249870881653	0.0017975333526996623
16	54971173	rs3821583	T	G	0.6	0.4	0.38333	0.61667	24	16	23	37	100	104	0.480769	0.519231	yes	0.2126722662711193	0.00042378713461173865	0.18377620193489003	0.0016724850368503219
18	40409004	rs4201415	C	A	0.6	0.4	0.56667	0.43333	24	16	34	26	100	104	0.557692	0.442308	no	0.03308611113236431	0.0008975893522796349	0.20118104542756765	0.002460605130415494
19	32618137	rs2394658	G	A	0.475	0.525	0.4	0.6	19	21	24	36	100	104	0.355769	0.644231	no	0.07421560439929405	0.0029701786199051606	0.18605879730246122	0.0031971683519819343
20	18075260	rs3726861	T	A	0.5	0.5	0.5	0.5	20	20	30	30	100	104	0.490385	0.509615	yes	0.0	0.0003770218742691921	0.19605921698865864	0.0021491031070211817
