CHROM	POS	ID	REF_Host1	ALT_Host2	PARASITE1_HOST1_AF	PARASITE1_HOST2_AF	PARASITE2_HOST1_AF	PARASITE2_HOST2_AF	PARASITE1_HOST1_COUNT	PARASITE1_HOST2_COUNT	PARASITE2_HOST1_COUNT	PARASITE2_HOST2_COUNT	OBS_CT_INF	OBS_CT_UNINF	UNINF_HOST1_FREQ	UNINF_HOST2_FREQ	swapped	CSA	HS	PI	HP
1	92189515	rs9790275	T	G	0.5	0.5	0.57143	0.42857	12	12	40	30	94	104	0.442308	0.557692	no	0.06264700137907352	0.004670193486203333	0.4731556759050442	0.007617082310506568
1	115475234	rs7964180	G	A	0.45833	0.54167	0.5	0.5	11	13	36	36	96	104	0.442308	0.557692	no	0.0360922251885651	0.0019303184062378772	0.49040221873816126	0.00609362313170643
1	169523766	rs7425082	C	A	0.5	0.5	0.40789	0.59211	12	12	31	45	100	104	0.480769	0.519231	no	0.07945572762358621	0.0020299639324552594	0.5002038408283652	0.004129153917327893
4	150794750	rs6739305	C	A	0.54167	0.45833	0.5	0.5	13	11	38	38	100	104	0.557692	0.442308	no	0.03559738102840008	0.0018709118761898664	0.5103699469351288	0.004186952650018253
5	164520833	rs1473244	T	C	0.33333	0.66667	0.51316	0.48684	8	16	39	37	100	104	0.528846	0.471154	no	0.15387730197389837	0.0023154751297645307	0.5174268082181218	0.003900756760810725
6	28269139	rs8872283	T	G	0.375	0.625	0.56579	0.43421	9	15	43	33	100	104	0.471154	0.528846	no	0.16309646061636973	0.001918264215679331	0.5042483013823575	0.0061550762589175885
7	5274288	rs5776864	T	C	0.41667	0.58333	0.44737	0.55263	10	14	34	42	100	104	0.596154	0.403846	no	0.026415282416350726	0.00620793253871561	0.5120468966447035	0.002140661347863543
8	62271451	rs5455978	G	A	0.58333	0.41667	0.57895	0.42105	14	10	44	32	100	104	0.461538	0.538462	no	0.0037952372331771737	0.0047635095509748785	0.5098791266934667	0.0076710864244611005
9	95110021	rs2635842	A	G	0.625	0.375	0.60526	0.39474	15	9	46	30	100	104	0.490385	0.509615	no	0.01728195471344973	0.004923519186233261	0.5124592556836859	0.007832528109265153
10	61905013	rs3109387	T	C	0.33333	0.66667	0.46053	0.53947	8	16	35	41	100	104	0.5	0.5	no	0.10972457624209524	0.002798600699650176	0.5225387306346827	0.003798100949525237
11	117480349	rs8229646	T	C	0.375	0.625	0.44737	0.55263	9	15	34	42	100	104	0.461538	0.538462	no	0.062429500275674885	0.001261161803475359	0.5170531460123144	0.004552562176420219
12	114379919	rs8974139	C	T	0.45833	0.54167	0.48684	0.51316	11	13	37	39	100	104	0.432692	0.567308	no	0.02437073549440009	0.0018581477431219003	0.5106096360147272	0.006035170231708222
13	67865813	rs7873853	C	A	0.45833	0.54167	0.5	0.5	11	13	38	38	100	104	0.490385	0.509615	no	0.03559738102840008	1.5102595594437414e-05	0.5103500485289357	0.0050957981615361945
14	82490104	rs6465662	G	T	0.54167	0.45833	0.48684	0.51316	13	11	37	39	100	104	0.490385	0.509615	no	0.046829290579084706	0.00037702187426919036	0.5097539641705124	0.005278510141354336
15	77605544	rs8462082	T	A	0.375	0.625	0.5	0.5	9	15	38	38	100	104	0.567308	0.432692	no	0.10696349039649031	0.003828537608430429	0.5150199088908858	0.003121074156440731
16	42107487	rs6456519	T	C	0.54167	0.45833	0.46053	0.53947	13	11	35	41	100	104	0.490385	0.509615	no	0.06936286256098484	0.00040786086363665174	0.507420544842134	0.004886589451148479
16	54971173	rs3821583	T	G	0.45833	0.54167	0.47368	0.52632	11	13	36	40	100	104	0.480769	0.519231	yes	0.013135867241674237	0.00042378713461173865	0.5104019998063221	0.004896364302103469
18	40409004	rs4201415	C	A	0.58333	0.41667	0.57895	0.42105	14	10	44	32	100	104	0.557692	0.442308	no	0.0037952372331771737	0.0008975893522796349	0.5101951312043117	0.00558664956227412
19	32618137	rs2394658	G	A	0.45833	0.54167	0.42105	0.57895	11	13	32	44	100	104	0.355769	0.644231	no	0.03216065165716581	0.0029701786199051606	0.5061599539518568	0.0063981799184758895
20	18075260	rs3726861	T	A	0.66667	0.33333	0.44737	0.55263	16	8	34	42	100	104	0.490385	0.509615	yes	0.18731716231633874	0.00037702187426919036	0.5097539641705123	0.0052558888288981856
