CHROM	POS	ID	REF_Host1	ALT_Host2	PARASITE1_HOST1_AF	PARASITE1_HOST2_AF	PARASITE2_HOST1_AF	PARASITE2_HOST2_AF	PARASITE1_HOST1_COUNT	PARASITE1_HOST2_COUNT	PARASITE2_HOST1_COUNT	PARASITE2_HOST2_COUNT	OBS_CT_INF	OBS_CT_UNINF	UNINF_HOST1_FREQ	UNINF_HOST2_FREQ	swapped	CSA	HS	PI	HP
1	92189515	rs9790275	T	G	0.5	0.5	0.70833	0.29167	35	35	17	7	94	104	0.442308	0.557692	no	0.1827204206889644	0.004670193486203333	0.4955588802566088	0.0026883916912131436
1	115475234	rs7964180	G	A	0.44444	0.55556	0.625	0.375	32	40	15	9	96	104	0.442308	0.557692	no	0.1563996424837821	0.0019303184062378772	0.4869996014355549	0.00396700092804658
1	169523766	rs7425082	C	A	0.41667	0.58333	0.46429	0.53571	30	42	13	15	100	104	0.480769	0.519231	no	0.04318712697227462	0.0020299639324552576	0.42583300598098245	0.0053748102226602165
4	150794750	rs6739305	C	A	0.48611	0.51389	0.57143	0.42857	35	37	16	12	100	104	0.557692	0.442308	no	0.07663021692452418	0.0018709118761898666	0.43269642695576255	0.005318547563938254
5	164520833	rs1473244	T	C	0.45833	0.54167	0.5	0.5	33	39	14	14	100	104	0.528846	0.471154	no	0.037484106092508025	0.0023154751297645285	0.4292871846129055	0.005520073664904256
6	28269139	rs8872283	T	G	0.56944	0.43056	0.39286	0.60714	41	31	11	17	100	104	0.471154	0.528846	no	0.15870201597279687	0.001918264215679331	0.4257049522573797	0.0034513785519884772
7	5274288	rs5776864	T	C	0.45833	0.54167	0.39286	0.60714	33	39	11	17	100	104	0.596154	0.403846	no	0.05922544268491787	0.006207932538715606	0.4373071322276195	0.007477037591633999
8	62271451	rs5455978	G	A	0.56944	0.43056	0.60714	0.39286	41	31	17	11	100	104	0.461538	0.538462	no	0.03429491149523615	0.0047635095509748785	0.4358903575202822	0.0020724189907348808
9	95110021	rs2635842	A	G	0.58333	0.41667	0.67857	0.32143	42	30	19	9	100	104	0.490385	0.509615	no	0.08767156191302843	0.004923519186233261	0.44824749352573	0.0020699505340030034
10	61905013	rs3109387	T	C	0.47222	0.52778	0.32143	0.67857	34	38	9	19	100	104	0.5	0.5	no	0.1367592354122029	0.002798600699650176	0.448175912043978	0.005797101449275363
11	117480349	rs8229646	T	C	0.47222	0.52778	0.32143	0.67857	34	38	9	19	100	104	0.461538	0.538462	no	0.1367592354122029	0.001261161803475359	0.44827268111353796	0.0050754728587687975
12	114379919	rs8974139	C	T	0.45833	0.54167	0.53571	0.46429	33	39	15	13	100	104	0.432692	0.567308	no	0.06954358003302333	0.0018581477431219003	0.4289120942523708	0.0032857211612378817
13	67865813	rs7873853	C	A	0.48611	0.51389	0.5	0.5	35	37	14	14	100	104	0.490385	0.509615	no	0.012474686476085345	1.5102595594437414e-05	0.43111045605941606	0.004318806884347324
14	82490104	rs6465662	G	T	0.48611	0.51389	0.53571	0.46429	35	37	15	13	100	104	0.490385	0.509615	no	0.04454354031873741	0.00037702187426919215	0.431330277375049	0.0041172513991305105
15	77605544	rs8462082	T	A	0.48611	0.51389	0.42857	0.57143	35	37	12	16	100	104	0.567308	0.432692	no	0.051763765556320576	0.0038285376084304266	0.4339701753297534	0.006215685181428444
16	42107487	rs6456519	T	C	0.43056	0.56944	0.60714	0.39286	31	41	17	11	100	104	0.490385	0.509615	no	0.15870201597279687	0.00040786086363665174	0.42573055000686777	0.004493864800977937
16	54971173	rs3821583	T	G	0.48611	0.51389	0.42857	0.57143	35	37	12	16	100	104	0.480769	0.519231	yes	0.051763765556320576	0.00042378713461173865	0.4340581386170958	0.004548237082130711
18	40409004	rs4201415	C	A	0.59722	0.40278	0.53571	0.46429	43	29	15	13	100	104	0.557692	0.442308	no	0.0559548555974905	0.0008975893522796349	0.4232849195796024	0.003837909880792984
19	32618137	rs2394658	G	A	0.40278	0.59722	0.5	0.5	29	43	14	14	100	104	0.355769	0.644231	no	0.08817371756839397	0.0029701786199051606	0.42053289454814335	0.0025123271321354926
20	18075260	rs3726861	T	A	0.54167	0.45833	0.39286	0.60714	39	33	11	17	100	104	0.490385	0.509615	yes	0.13363062095621225	0.00037702187426919036	0.43133027737504887	0.004147413149072045
