CHROM	POS	ID	REF_Host1	ALT_Host2	PARASITE1_HOST1_AF	PARASITE1_HOST2_AF	PARASITE2_HOST1_AF	PARASITE2_HOST2_AF	PARASITE1_HOST1_COUNT	PARASITE1_HOST2_COUNT	PARASITE2_HOST1_COUNT	PARASITE2_HOST2_COUNT	OBS_CT_INF	OBS_CT_UNINF	UNINF_HOST1_FREQ	UNINF_HOST2_FREQ	swapped	CSA	HS	PI	HP
1	92189515	rs9790275	T	G	0.52439	0.47561	0.75	0.25	43	39	9	3	94	104	0.442308	0.557692	no	0.15143599249552175	0.004670193486203335	0.7393057436016317	0.005480175066636932
1	115475234	rs7964180	G	A	0.47619	0.52381	0.58333	0.41667	40	44	7	5	96	104	0.442308	0.557692	no	0.07088372311113914	0.001930318406237877	0.7336893558745258	0.0066171158037124376
1	169523766	rs7425082	C	A	0.4186	0.5814	0.5	0.5	36	50	7	7	100	104	0.480769	0.519231	no	0.05704809893433998	0.002029963932455257	0.7001254398804697	0.008158333840304193
4	150794750	rs6739305	C	A	0.48837	0.51163	0.64286	0.35714	42	44	9	5	100	104	0.557692	0.442308	no	0.10723006585118826	0.0018709118761898664	0.7072997804181684	0.008064581098562312
5	164520833	rs1473244	T	C	0.47674	0.52326	0.42857	0.57143	41	45	6	8	100	104	0.528846	0.471154	no	0.03349098234834402	0.0023154751297645285	0.7070843911543458	0.008251736227723369
6	28269139	rs8872283	T	G	0.56977	0.43023	0.21429	0.78571	49	37	3	11	100	104	0.471154	0.528846	no	0.24689269199994177	0.001918264215679331	0.6990358072123024	0.0062230523858512925
7	5274288	rs5776864	T	C	0.44186	0.55814	0.42857	0.57143	38	48	6	8	100	104	0.596154	0.403846	no	0.009289372696605078	0.006207932538715609	0.7060522425784111	0.01041280599669054
8	62271451	rs5455978	G	A	0.59302	0.40698	0.5	0.5	51	35	7	7	100	104	0.461538	0.538462	no	0.06539825151937141	0.0047635095509748785	0.6980679526339575	0.004980005514930126
9	95110021	rs2635842	A	G	0.62791	0.37209	0.5	0.5	54	32	7	7	100	104	0.490385	0.509615	no	0.09099347615202852	0.004923519186233263	0.6910996709179988	0.004990824226549017
10	61905013	rs3109387	T	C	0.45349	0.54651	0.28571	0.71429	39	47	4	10	100	104	0.5	0.5	no	0.11758893861976201	0.002798600699650178	0.7168415792103948	0.008595702148925539
11	117480349	rs8229646	T	C	0.44186	0.55814	0.35714	0.64286	38	48	5	9	100	104	0.461538	0.538462	no	0.059376592768394666	0.001261161803475359	0.7113979479937413	0.007782395235779352
12	114379919	rs8974139	C	T	0.48837	0.51163	0.42857	0.57143	42	44	6	8	100	104	0.432692	0.567308	no	0.04153335005606496	0.0018581477431219003	0.7069979575588531	0.006140905704027581
13	67865813	rs7873853	C	A	0.47674	0.52326	0.57143	0.42857	41	45	8	6	100	104	0.490385	0.509615	no	0.06572165326363158	1.5102595594437414e-05	0.7049185528105283	0.007057189903770336
14	82490104	rs6465662	G	T	0.48837	0.51163	0.57143	0.42857	42	44	8	6	100	104	0.490385	0.509615	no	0.057639041770423526	0.00037702187426919036	0.705813181159171	0.006862080436971731
15	77605544	rs8462082	T	A	0.5	0.5	0.28571	0.71429	43	43	4	10	100	104	0.567308	0.432692	no	0.14897712837711663	0.003828537608430429	0.7117425631654793	0.008916838307617095
16	42107487	rs6456519	T	C	0.44186	0.55814	0.71429	0.28571	38	48	10	4	100	104	0.490385	0.509615	no	0.18920748358874043	0.00040786086363665174	0.7006488018563213	0.00724304731947247
16	54971173	rs3821583	T	G	0.45349	0.54651	0.57143	0.42857	39	47	8	6	100	104	0.480769	0.519231	yes	0.08199516368042853	0.00042378713461174044	0.702442227952417	0.007257505203560628
18	40409004	rs4201415	C	A	0.56977	0.43023	0.64286	0.35714	49	37	9	5	100	104	0.557692	0.442308	no	0.05138434047950608	0.0008975893522796349	0.7113761766318794	0.00670087066427016
19	32618137	rs2394658	G	A	0.4186	0.5814	0.5	0.5	36	50	7	7	100	104	0.355769	0.644231	no	0.05704809893433998	0.002970178619905162	0.7006214066163645	0.005313212252817703
20	18075260	rs3726861	T	A	0.53488	0.46512	0.28571	0.71429	46	40	4	10	100	104	0.490385	0.509615	yes	0.17291712531127051	0.00037702187426919215	0.7058131811591711	0.006892242186913266
