CHROM	POS	ID	REF_Host1	ALT_Host2	PARASITE1_HOST1_AF	PARASITE1_HOST2_AF	PARASITE2_HOST1_AF	PARASITE2_HOST2_AF	PARASITE1_HOST1_COUNT	PARASITE1_HOST2_COUNT	PARASITE2_HOST1_COUNT	PARASITE2_HOST2_COUNT	OBS_CT_INF	OBS_CT_UNINF	UNINF_HOST1_FREQ	UNINF_HOST2_FREQ	swapped	CSA	HS	PI	HP
1	92189515	rs9790275	T	G	0.58696	0.41304	0.52083	0.47917	27	19	25	23	94	104	0.442308	0.557692	no	0.06648550995858779	0.004670193486203335	0.02777997339594014	0.0024815796466902853
1	115475234	rs7964180	G	A	0.45833	0.54167	0.52083	0.47917	22	26	25	23	96	104	0.442308	0.557692	no	0.06251356778481197	0.0019303184062378772	0.0012759814884774432	0.001038773127152179
1	169523766	rs7425082	C	A	0.48	0.52	0.38	0.62	24	26	19	31	100	104	0.480769	0.519231	no	0.10099464540584709	0.0020299639324552576	0.01399451193364731	0.0010534288889413384
4	150794750	rs6739305	C	A	0.52	0.48	0.5	0.5	26	24	25	25	100	104	0.557692	0.442308	no	0.02000400120040016	0.0018709118761898666	0.0003922905049462845	0.0009128239142835721
5	164520833	rs1473244	T	C	0.5	0.5	0.44	0.56	25	25	22	28	100	104	0.528846	0.471154	no	0.0601082924775646	0.00231547512976453	0.0035413241627095184	0.0011236865526164247
6	28269139	rs8872283	T	G	0.58	0.42	0.46	0.54	29	21	23	27	100	104	0.471154	0.528846	no	0.12009611535381533	0.001918264215679331	0.004712600947498693	0.000891162264373893
7	5274288	rs5776864	T	C	0.42	0.58	0.46	0.54	21	29	23	27	100	104	0.596154	0.403846	no	0.04029114820126899	0.006207932538715609	0.004770623260664965	0.0031804186875254658
8	62271451	rs5455978	G	A	0.44	0.56	0.72	0.28	22	28	36	14	100	104	0.461538	0.538462	no	0.2836543144655877	0.004763509550974877	0.04503664210541662	0.002598279691569755
9	95110021	rs2635842	A	G	0.56	0.44	0.66	0.34	28	22	33	17	100	104	0.490385	0.509615	no	0.10251154601309115	0.004923519186233264	0.022638762299279327	0.0024815479294355
10	61905013	rs3109387	T	C	0.48	0.52	0.38	0.62	24	26	19	31	100	104	0.5	0.5	no	0.10099464540584709	0.002798600699650176	0.013993003498250875	0.0013993003498250867
11	117480349	rs8229646	T	C	0.46	0.54	0.4	0.6	23	27	20	30	100	104	0.461538	0.538462	no	0.060596787243508254	0.001261161803475359	0.008397614900432017	0.0006767221966377381
12	114379919	rs8974139	C	T	0.44	0.56	0.52	0.48	22	28	26	24	100	104	0.432692	0.567308	no	0.08006407690254358	0.0018581477431219003	0.003142213144705964	0.0010348219127328858
13	67865813	rs7873853	C	A	0.54	0.46	0.44	0.56	27	23	22	28	100	104	0.490385	0.509615	no	0.10002000600200076	1.5102595594437414e-05	0.001961376051225684	2.6409928529754032e-05
14	82490104	rs6465662	G	T	0.58	0.42	0.42	0.58	29	21	21	29	100	104	0.490385	0.509615	no	0.16	0.00037702187426919036	0.0	0.00015834918719306117
15	77605544	rs8462082	T	A	0.48	0.52	0.46	0.54	24	26	23	27	100	104	0.567308	0.432692	no	0.020036097492521488	0.0038285376084304266	0.0011803359256475604	0.0018877867873873858
16	42107487	rs6456519	T	C	0.54	0.46	0.42	0.58	27	23	21	29	100	104	0.490385	0.509615	no	0.12009611535381533	0.00040786086363665174	0.004712884317419225	0.00022658762317431908
16	54971173	rs3821583	T	G	0.5	0.5	0.44	0.56	25	25	22	28	100	104	0.480769	0.519231	yes	0.0601082924775646	0.00042378713461174033	0.0035417255190877566	0.00023459720845839566
18	40409004	rs4201415	C	A	0.56	0.44	0.6	0.4	28	22	30	20	100	104	0.557692	0.442308	no	0.04052204492365536	0.0008975893522796349	0.0064377934536822105	0.00040236852864858943
19	32618137	rs2394658	G	A	0.32	0.68	0.54	0.46	16	34	27	23	100	104	0.355769	0.644231	no	0.22218821989286364	0.0029701786199051606	0.03080973632750434	0.0021199063214171914
20	18075260	rs3726861	T	A	0.44	0.56	0.56	0.44	22	28	28	22	100	104	0.490385	0.509615	yes	0.12000000000000005	0.0003770218742691921	0.0	0.00021113224959074702
