CHROM	POS	ID	REF_Host1	ALT_Host2	PARASITE1_HOST1_AF	PARASITE1_HOST2_AF	PARASITE2_HOST1_AF	PARASITE2_HOST2_AF	PARASITE1_HOST1_COUNT	PARASITE1_HOST2_COUNT	PARASITE2_HOST1_COUNT	PARASITE2_HOST2_COUNT	OBS_CT_INF	OBS_CT_UNINF	UNINF_HOST1_FREQ	UNINF_HOST2_FREQ	swapped
1	92189515	rs9790275	T	G	0.68182	0.31818	0.51389	0.48611	15	7	37	35	94	104	0.442308	0.557692	no
1	115475234	rs7964180	G	A	0.45833	0.54167	0.5	0.5	11	13	36	36	96	104	0.442308	0.557692	no
1	169523766	rs7425082	C	A	0.45833	0.54167	0.42105	0.57895	11	13	32	44	100	104	0.480769	0.519231	no
4	150794750	rs6739305	C	A	0.5	0.5	0.51316	0.48684	12	12	39	37	100	104	0.557692	0.442308	no
5	164520833	rs1473244	T	C	0.5	0.5	0.46053	0.53947	12	12	35	41	100	104	0.528846	0.471154	no
6	28269139	rs8872283	T	G	0.70833	0.29167	0.46053	0.53947	17	7	35	41	100	104	0.471154	0.528846	no
7	5274288	rs5776864	T	C	0.33333	0.66667	0.47368	0.52632	8	16	36	40	100	104	0.596154	0.403846	no
8	62271451	rs5455978	G	A	0.5	0.5	0.60526	0.39474	12	12	46	30	100	104	0.461538	0.538462	no
9	95110021	rs2635842	A	G	0.45833	0.54167	0.65789	0.34211	11	13	50	26	100	104	0.490385	0.509615	no
10	61905013	rs3109387	T	C	0.41667	0.58333	0.43421	0.56579	10	14	33	43	100	104	0.5	0.5	no
11	117480349	rs8229646	T	C	0.33333	0.66667	0.46053	0.53947	8	16	35	41	100	104	0.461538	0.538462	no
12	114379919	rs8974139	C	T	0.54167	0.45833	0.46053	0.53947	13	11	35	41	100	104	0.432692	0.567308	no
13	67865813	rs7873853	C	A	0.45833	0.54167	0.5	0.5	11	13	38	38	100	104	0.490385	0.509615	no
14	82490104	rs6465662	G	T	0.58333	0.41667	0.47368	0.52632	14	10	36	40	100	104	0.490385	0.509615	no
15	77605544	rs8462082	T	A	0.625	0.375	0.42105	0.57895	15	9	32	44	100	104	0.567308	0.432692	no
16	42107487	rs6456519	T	C	0.54167	0.45833	0.46053	0.53947	13	11	35	41	100	104	0.490385	0.509615	no
16	54971173	rs3821583	T	G	0.41667	0.58333	0.48684	0.51316	10	14	37	39	100	104	0.480769	0.519231	yes
18	40409004	rs4201415	C	A	0.45833	0.54167	0.61842	0.38158	11	13	47	29	100	104	0.557692	0.442308	no
19	32618137	rs2394658	G	A	0.29167	0.70833	0.47368	0.52632	7	17	36	40	100	104	0.355769	0.644231	no
20	18075260	rs3726861	T	A	0.41667	0.58333	0.52632	0.47368	10	14	40	36	100	104	0.490385	0.509615	yes
