CHROM	POS	ID	REF_Host1	ALT_Host2	PARASITE1_HOST1_AF	PARASITE1_HOST2_AF	PARASITE2_HOST1_AF	PARASITE2_HOST2_AF	PARASITE1_HOST1_COUNT	PARASITE1_HOST2_COUNT	PARASITE2_HOST1_COUNT	PARASITE2_HOST2_COUNT	OBS_CT_INF	OBS_CT_UNINF	UNINF_HOST1_FREQ	UNINF_HOST2_FREQ	swapped	CSA	HS	PI	HP
1	92189515	rs9790275	T	G	0.53571	0.46429	0.57895	0.42105	30	26	22	16	94	104	0.442308	0.557692	no	0.04267521310614649	0.004670193486203332	0.19177142924939292	0.0003446580647698611
1	115475234	rs7964180	G	A	0.48276	0.51724	0.5	0.5	28	30	19	19	96	104	0.442308	0.557692	no	0.01686672765725866	0.001930318406237877	0.203731710993564	0.0011369386363323743
1	169523766	rs7425082	C	A	0.41935	0.58065	0.44737	0.55263	26	36	17	21	100	104	0.480769	0.519231	no	0.027465318322957503	0.0020299639324552594	0.23150921170233701	0.0033909730012246573
4	150794750	rs6739305	C	A	0.5	0.5	0.52632	0.47368	31	31	20	18	100	104	0.557692	0.442308	no	0.0255517658106399	0.0018709118761898666	0.23576659347272272	0.003311830991584059
5	164520833	rs1473244	T	C	0.51613	0.48387	0.39474	0.60526	32	30	15	23	100	104	0.528846	0.471154	no	0.11805694110179546	0.00231547512976453	0.24199048445182111	0.003461868652912251
6	28269139	rs8872283	T	G	0.53226	0.46774	0.5	0.5	33	29	19	19	100	104	0.471154	0.528846	no	0.03134033675669683	0.001918264215679331	0.23405918039243387	0.001419824980398259
7	5274288	rs5776864	T	C	0.43548	0.56452	0.44737	0.55263	27	35	17	21	100	104	0.596154	0.403846	no	0.011621174876496321	0.006207932538715609	0.23376053977258207	0.005565730317857937
8	62271451	rs5455978	G	A	0.58065	0.41935	0.57895	0.42105	36	26	22	16	100	104	0.461538	0.538462	no	0.0016696817732011525	0.0047635095509748785	0.23483391954967234	6.18546110287821e-05
9	95110021	rs2635842	A	G	0.66129	0.33871	0.52632	0.47368	41	21	20	18	100	104	0.490385	0.509615	no	0.13432048643482528	0.004923519186233263	0.20621854385343502	4.3542572178712706e-05
10	61905013	rs3109387	T	C	0.48387	0.51613	0.34211	0.65789	30	32	13	25	100	104	0.5	0.5	no	0.13899115636163337	0.002798600699650176	0.2538730634682659	0.003798100949525238
11	117480349	rs8229646	T	C	0.46774	0.53226	0.36842	0.63158	29	33	14	24	100	104	0.461538	0.538462	no	0.09737703769048563	0.001261161803475359	0.2483294691984898	0.003076040739618316
12	114379919	rs8974139	C	T	0.5	0.5	0.44737	0.55263	31	31	17	21	100	104	0.432692	0.567308	no	0.05113423365566313	0.0018581477431219003	0.23723709242530394	0.0014804600075545278
13	67865813	rs7873853	C	A	0.48387	0.51613	0.5	0.5	30	32	19	19	100	104	0.490385	0.509615	no	0.015660759690392205	1.5102595594437414e-05	0.23497285093684278	0.0023574308331215906
14	82490104	rs6465662	G	T	0.45161	0.54839	0.57895	0.42105	28	34	22	16	100	104	0.490385	0.509615	no	0.12361284651454936	0.00037702187426919215	0.23527106038639037	0.0021415783542731554
15	77605544	rs8462082	T	A	0.46774	0.53226	0.47368	0.52632	29	33	18	20	100	104	0.567308	0.432692	no	0.005779011102885115	0.003828537608430429	0.23488684920386466	0.004301422672338165
16	42107487	rs6456519	T	C	0.45161	0.54839	0.52632	0.47368	28	34	20	18	100	104	0.490385	0.509615	no	0.07257762196287677	0.00040786086363665174	0.23250229299268058	0.002545267796290597
16	54971173	rs3821583	T	G	0.48387	0.51613	0.44737	0.55263	30	32	17	21	100	104	0.480769	0.519231	yes	0.03549963963200841	0.00042378713461173865	0.23729560977888375	0.0025806117937485907
18	40409004	rs4201415	C	A	0.62903	0.37097	0.5	0.5	39	23	19	19	100	104	0.557692	0.442308	no	0.12689581476328834	0.0008975893522796349	0.21566608069835255	0.0017796732790260788
19	32618137	rs2394658	G	A	0.45161	0.54839	0.39474	0.60526	28	34	15	23	100	104	0.355769	0.644231	no	0.055762919019337984	0.002970178619905162	0.24287675260772887	0.0009733800023237599
20	18075260	rs3726861	T	A	0.3871	0.6129	0.68421	0.31579	24	38	26	12	100	104	0.490385	0.509615	yes	0.28842997520061525	0.00037702187426919036	0.23527106038639034	0.0021114166043316213
